// Jest Snapshot v1, https://goo.gl/fbAQLP

exports[`renders correctly 1`] = `
.c0 {
  display: inline-block;
  height: 40px;
  margin: 20px;
  background: #fff;
  border: solid 1px #bbb;
  border-radius: 5px;
  padding: 0 15px;
  font-size: 18px;
  color: #888;
  -webkit-transition: border 200ms,color 200ms;
  transition: border 200ms,color 200ms;
  visibility: hidden;
}

.c0:focus {
  outline: none;
}

.c0:active {
  color: #333;
  border: solid 1px #333;
}

<button
  className="c0"
/>
`;
