// Jest Snapshot v1, https://goo.gl/fbAQLP

exports[`renders correctly 1`] = `
.c0 {
  -webkit-appearance: none;
  -moz-appearance: none;
  appearance: none;
  background-image: linear-gradient(45deg,transparent 50%,#bbb 50%), linear-gradient(135deg,#bbb 50%,transparent 50%);
  background-position: calc(100% - 17px) calc(1em - 1px), calc(100% - 12px) calc(1em - 1px);
  background-size: 5px 5px, 5px 5px;
  background-repeat: no-repeat;
  display: inline-block;
  height: 40px;
  margin: 20px 20px 20px 0;
  border: solid 1px #bbb;
  border-radius: 5px;
  padding: 0 35px 0 15px;
  font-size: 18px;
  color: #333;
  -webkit-transition: border 200ms;
  transition: border 200ms;
}

.c0::-webkit-input-placeholder {
  color: #aaa;
  -webkit-transition: color 200ms;
  transition: color 200ms;
}

.c0::-moz-placeholder {
  color: #aaa;
  -webkit-transition: color 200ms;
  transition: color 200ms;
}

.c0:-ms-input-placeholder {
  color: #aaa;
  -webkit-transition: color 200ms;
  transition: color 200ms;
}

.c0::placeholder {
  color: #aaa;
  -webkit-transition: color 200ms;
  transition: color 200ms;
}

.c0:focus {
  outline: none;
  border: solid 1px #333;
}

.c0:hover {
  border: solid 1px #333;
}

.c0:focus::-webkit-input-placeholder {
  color: transparent;
}

.c0:focus::-moz-placeholder {
  color: transparent;
}

.c0:focus:-ms-input-placeholder {
  color: transparent;
}

.c0:focus::placeholder {
  color: transparent;
}

<select
  className="c0"
/>
`;
