[
  {
    "title": "Films I've Seen",
    "route": "list",
    "datePosted": 1532228220000,
    "lastUpdated": 1599412299000,
    "fileName": "filmsSeen",
    "labels": [
      "List"
    ]
  },
  {
    "title": "TV Shows I've Seen",
    "route": "list",
    "datePosted": 1532228640000,
    "lastUpdated": 1599412307000,
    "fileName": "tvShowsSeen",
    "labels": [
      "List"
    ]
  },
  {
    "title": "Living in Stockholm, September 2020",
    "route": "post",
    "datePosted": 1601237008000,
    "lastUpdated": 1601237008000,
    "fileName": "Living_In_Stockholm_September_2020.md",
    "labels": [
      "Blog"
    ]
  },
  {
    "title": "Apple Special Event 2020 Review",
    "route": "post",
    "datePosted": 1600193068000,
    "lastUpdated": 1600193068000,
    "fileName": "Apple_Special_Event_2020.md",
    "labels": [
      "Blog",
      "Review"
    ]
  },
  {
    "title": "Are you in governance/management? Answer this.",
    "route": "post",
    "datePosted": 1599900046000,
    "lastUpdated": 1599900046000,
    "fileName": "Governance.md",
    "labels": [
      "Blog",
      "Management Philosophy"
    ]
  },
  {
    "title": "2nd-Gen Google Pixel Buds Review",
    "route": "post",
    "datePosted": 1594844960000,
    "lastUpdated": 1594844960000,
    "fileName": "Pixel_Buds_Review.md",
    "labels": [
      "Blog",
      "Review"
    ]
  },
  {
    "title": "Software Development Principles",
    "route": "post",
    "datePosted": 1588288836000,
    "lastUpdated": 1589744358000,
    "fileName": "Software_Development_Principles.md",
    "labels": [
      "Blog",
      "Tech Guide",
      "Engineering Philosophy"
    ]
  },
  {
    "title": "How to Structure Software Development Projects",
    "route": "post",
    "datePosted": 1576799674000,
    "lastUpdated": 1576799674000,
    "fileName": "Project_Development_Structure.md",
    "labels": [
      "Blog",
      "Tech Guide",
      "Engineering Philosophy"
    ]
  },
  {
    "title": "Upgrading my PC",
    "route": "post",
    "datePosted": 1576337273000,
    "lastUpdated": 1576456049000,
    "fileName": "Upgrading_my_PC.md",
    "labels": [
      "Blog"
    ]
  },
  {
    "title": "Managing and Empowering Software Engineering Teams",
    "route": "post",
    "datePosted": 1574814665000,
    "lastUpdated": 1574880077000,
    "fileName": "Managing_and_Empowering_Software_Engineering_Teams.md",
    "labels": [
      "Blog",
      "Tech Guide",
      "Management Philosophy"
    ]
  },
  {
    "title": "Onboarding Checklist Guide",
    "route": "post",
    "datePosted": 1574794192000,
    "lastUpdated": 1574794192000,
    "fileName": "Onboarding.md",
    "labels": [
      "Tech Guide"
    ]
  },
  {
    "title": "Apple Special Event 2019 Review",
    "route": "post",
    "datePosted": 1570733100000,
    "lastUpdated": 1568142000000,
    "fileName": "Apple_Special_Event_2019.md",
    "labels": [
      "Blog",
      "Review"
    ]
  },
  {
    "title": "Building and Deploying projects like a Pro",
    "route": "post",
    "datePosted": 1561901400000,
    "lastUpdated": 1561901400000,
    "fileName": "build-deploy-like-a-pro.md",
    "labels": [
      "Blog",
      "Tech Guide"
    ]
  },
  {
    "title": "Apple WWDC 2019 Keynote Review",
    "route": "post",
    "datePosted": 1559653200000,
    "lastUpdated": 1559653200000,
    "fileName": "Apple-WWDC-2019-Keynote-Review.md",
    "labels": [
      "Blog",
      "Review"
    ]
  },
  {
    "title": "What is... Homebrew (the macOS package manager)",
    "route": "post",
    "datePosted": 1558051500000,
    "lastUpdated": 1558773480000,
    "fileName": "What-is-homebrew.md",
    "labels": [
      "Tech Guide",
      "What is..."
    ]
  },
  {
    "title": "Avengers: Endgame - Review",
    "route": "post",
    "datePosted": 1557172800000,
    "lastUpdated": 1557172800000,
    "fileName": "Avengers_Endgame_Review.md",
    "labels": [
      "Review",
      "Blog"
    ]
  },
  {
    "title": "2018 Retrospective",
    "route": "post",
    "datePosted": 1547498700000,
    "lastUpdated": 1547498700000,
    "fileName": "2018_Retrospective.md",
    "labels": [
      "Blog"
    ]
  },
  {
    "title": "Harmelodic's 2017 Retrospective",
    "route": "post",
    "datePosted": 1514752200000,
    "lastUpdated": 1514752200000,
    "fileName": "Harmelodics_2017_Retrospective.md",
    "labels": [
      "Blog"
    ]
  },
  {
    "title": "Bribing an ISP with Macaroni Cheese",
    "route": "post",
    "datePosted": 1496939400000,
    "lastUpdated": 1496939400000,
    "fileName": "Bribing_an_ISP_with_Macaroni_Cheese.md",
    "labels": [
      "Blog"
    ]
  },
  {
    "title": "Buying Games on Twitch is a Bad Idea",
    "route": "post",
    "datePosted": 1491314400000,
    "lastUpdated": 1491314400000,
    "fileName": "Buying_Games_on_Twitch.md",
    "labels": [
      "Blog"
    ]
  },
  {
    "title": "TomSka's Worst Video",
    "route": "post",
    "datePosted": 1491310800000,
    "lastUpdated": 1491310800000,
    "fileName": "TomSkas_Worst_Video.md",
    "labels": [
      "Blog",
      "Review"
    ]
  },
  {
    "title": "Telegraph Tor Article Corrections",
    "route": "post",
    "datePosted": 1464436800000,
    "lastUpdated": 1464436800000,
    "fileName": "Telegraph_Tor_Article_Corrections.md",
    "labels": [
      "Blog",
      "Review"
    ]
  },
  {
    "title": "03:45",
    "route": "post",
    "datePosted": 1489981500000,
    "lastUpdated": 1489981500000,
    "fileName": "0345.md",
    "labels": [
      "Poetry"
    ]
  },
  {
    "title": "Klub Stars",
    "route": "post",
    "datePosted": 1524355200000,
    "lastUpdated": 1524355200000,
    "fileName": "klub_stars.md",
    "labels": [
      "Poetry"
    ]
  },
  {
    "title": "Pensive Awakening",
    "route": "post",
    "datePosted": 1487289600000,
    "lastUpdated": 1487289600000,
    "fileName": "pensive_awakening.md",
    "labels": [
      "Poetry"
    ]
  },
  {
    "title": "Redbank",
    "route": "post",
    "datePosted": 1514764800000,
    "lastUpdated": 1514764800000,
    "fileName": "redbank.md",
    "labels": [
      "Poetry"
    ]
  },
  {
    "title": "Scent",
    "route": "post",
    "datePosted": 1486656000000,
    "lastUpdated": 1486656000000,
    "fileName": "scent.md",
    "labels": [
      "Poetry"
    ]
  },
  {
    "title": "Time Stops on a train to London",
    "route": "post",
    "datePosted": 1489996800000,
    "lastUpdated": 1489996800000,
    "fileName": "time_stops_on_a_train_to_london.md",
    "labels": [
      "Poetry"
    ]
  },
  {
    "title": "An ideal CI/CD pipeline",
    "route": "post",
    "datePosted": 1543341600000,
    "lastUpdated": 1543341600000,
    "fileName": "ci-cd-pipeline.md",
    "labels": [
      "Tech Guide",
      "Engineering Philosophy"
    ]
  },
  {
    "title": "Principles for managing npm packages",
    "route": "post",
    "datePosted": 1543243500000,
    "lastUpdated": 1543243500000,
    "fileName": "npm-package-principles.md",
    "labels": [
      "Tech Guide",
      "Engineering Philosophy"
    ]
  },
  {
    "title": "Setting up cert-manager on K8s with Let's Encrypt",
    "route": "post",
    "datePosted": 1542578400000,
    "lastUpdated": 1542578400000,
    "fileName": "cert-manager-setup.md",
    "labels": [
      "Tech Guide"
    ]
  },
  {
    "title": "Setting up an NGINX Ingress",
    "route": "post",
    "datePosted": 1541246400000,
    "lastUpdated": 1541246400000,
    "fileName": "nginx-ingress-setup.md",
    "labels": [
      "Tech Guide"
    ]
  },
  {
    "title": "Authorising a K8s deployment access to a private Docker/GitLab registry",
    "route": "post",
    "datePosted": 1541160000000,
    "lastUpdated": 1541160000000,
    "fileName": "deployment-registry-access.md",
    "labels": [
      "Tech Guide"
    ]
  },
  {
    "title": "Connecting CI/CD to K8s through a K8s Service Account",
    "route": "post",
    "datePosted": 1541073600000,
    "lastUpdated": 1541073600000,
    "fileName": "deployment-service-account-token.md",
    "labels": [
      "Tech Guide"
    ]
  },
  {
    "title": "Using OnePlus Bullets Wireless (or any AptX device) with MacOS",
    "route": "post",
    "datePosted": 1540990800000,
    "lastUpdated": 1540990800000,
    "fileName": "Bullets_Wireless_MacOS.md",
    "labels": [
      "Tech Guide"
    ]
  },
  {
    "title": "Double-not with Truthy/Falsy values - JavaScript",
    "route": "post",
    "datePosted": 1538751600000,
    "lastUpdated": 1538751600000,
    "fileName": "Double-not-Truthy.md",
    "labels": [
      "Tech Guide"
    ]
  },
  {
    "title": "Vertical Align Anything",
    "route": "post",
    "datePosted": 1538304000000,
    "lastUpdated": 1538304000000,
    "fileName": "Vertical-Align-Anything.md",
    "labels": [
      "Tech Guide"
    ]
  },
  {
    "title": "Setup CLion On Windows",
    "route": "post",
    "datePosted": 1479211200000,
    "lastUpdated": 1479211200000,
    "fileName": "Setup_CLion_On_Windows.md",
    "labels": [
      "Tech Guide"
    ]
  },
  {
    "title": "Special characters, URLs and %-encoding",
    "route": "post",
    "datePosted": 1478779200000,
    "lastUpdated": 1478779200000,
    "fileName": "Special_characters_URLs_and_Percent-encoding.md",
    "labels": [
      "Tech Guide"
    ]
  },
  {
    "title": "Setting Up A Large Minecraft Server",
    "route": "post",
    "datePosted": 1474639200000,
    "lastUpdated": 1474639200000,
    "fileName": "Setting_Up_A_Large_Minecraft_Server.md",
    "labels": [
      "Tech Guide"
    ]
  },
  {
    "title": "What is... Programming",
    "route": "post",
    "datePosted": 1474635600000,
    "lastUpdated": 1474635600000,
    "fileName": "What_Is_Programming.md",
    "labels": [
      "Tech Guide",
      "What is..."
    ]
  },
  {
    "title": "Installing an Apache Http Server",
    "route": "post",
    "datePosted": 1474632000000,
    "lastUpdated": 1474632000000,
    "fileName": "Installing_Apache_HTTP_Server.md",
    "labels": [
      "Tech Guide"
    ]
  },
  {
    "title": "Windows 10 - Configuring & Cleaning (Technical)",
    "route": "post",
    "datePosted": 1464458400000,
    "lastUpdated": 1464458400000,
    "fileName": "Win10_Configuring_And_Cleaning.md",
    "labels": [
      "Tech Guide"
    ]
  },
  {
    "title": "Windows 10 - Upgrading from Windows 7, 8 or 8.1",
    "route": "post",
    "datePosted": 1464454800000,
    "lastUpdated": 1464454800000,
    "fileName": "Win10_Upgrading.md",
    "labels": [
      "Tech Guide"
    ]
  },
  {
    "title": "Windows 10 - Installation",
    "route": "post",
    "datePosted": 1464451200000,
    "lastUpdated": 1464451200000,
    "fileName": "Win10_Installation.md",
    "labels": [
      "Tech Guide"
    ]
  },
  {
    "title": "Windows 10 - Getting Your Product Key",
    "route": "post",
    "datePosted": 1464447600000,
    "lastUpdated": 1464447600000,
    "fileName": "Win10_Getting_Your_Product_Key.md",
    "labels": [
      "Tech Guide"
    ]
  },
  {
    "title": "Windows 10 - Downloading Installation Media",
    "route": "post",
    "datePosted": 1464444000000,
    "lastUpdated": 1464444000000,
    "fileName": "Win10_Downloading_Installation_Media.md",
    "labels": [
      "Tech Guide"
    ]
  },
  {
    "title": "Windows 10 - Introduction",
    "route": "post",
    "datePosted": 1464440400000,
    "lastUpdated": 1464440400000,
    "fileName": "Win10_Introduction.md",
    "labels": [
      "Tech Guide"
    ]
  }
]